[
	{"title": "CharityOrganization", "key": "CharityOrganization", "expand": true, "isFolder": true, "children": [
			{"title": "ProgramData", "key": "[child] ProgramData", "realName": "ProgramData", "select": true},
			{"title": "Periodic", "key": "[child] Periodic", "realName": "Periodic", "select": true},
			{"title": "Eventual", "key": "[child] Eventual", "realName": "Eventual", "select": true},
			{"title": "Continuous", "key": "[child] Continuous", "realName": "Continuous", "select": true},
			{"title": "PublicationSystem", "key": "[child] PublicationSystem", "realName": "PublicationSystem", "select": true},
			{"title": "StoryBoard", "key": "[child] StoryBoard", "realName": "StoryBoard", "select": true},
			{"title": "AutomaticReport", "key": "[child] AutomaticReport", "realName": "AutomaticReport", "select": true},
			{"title": "FinancialReport", "key": "[child] FinancialReport", "realName": "FinancialReport", "select": true},
			{"title": "Summary", "key": "[child] Summary", "realName": "Summary", "select": true},
			{"title": "Donor", "key": "[child] Donor", "realName": "Donor", "select": true},
			{"title": "ObjectiveTarget", "key": "[child] ObjectiveTarget", "realName": "ObjectiveTarget", "select": true},
			{"title": "Product", "key": "[child] Product", "realName": "Product", "select": true},
			{"title": "InstitutionalBeneficiary", "key": "[child] InstitutionalBeneficiary", "realName": "InstitutionalBeneficiary", "select": true}
		]
	},
	{"title": "All_Features", "key": "All_Features", "expand": true, "isFolder": true, "children": [
			{"title": "Periodic", "key": "[child] Periodic", "realName": "Periodic"},
			{"title": "Continous", "key": "[child] Continous", "realName": "Continous"},
			{"title": "Eventual", "key": "[child] Eventual", "realName": "Eventual"},
			{"title": "MemberNotification (require: Donor)", "key": "[child] MemberNotification (require: Donor)", "realName": "MemberNotification", "require": "Donor"},
			{"title": "AutomaticReport (require: Summary)", "key": "[child] AutomaticReport (require: Summary)", "realName": "AutomaticReport", "require": "Summary"},
			{"title": "StoryBoard", "key": "[child] StoryBoard", "realName": "StoryBoard"},
			{"title": "Summary (exclude: Income) (exclude: Expense)", "key": "[child] Summary (exclude: Income) (exclude: Expense)", "realName": "Summary", "exclude": "Income,Expense"},
			{"title": "Donor", "key": "[child] Donor", "realName": "Donor"},
			{"title": "Expense", "key": "[child] Expense", "realName": "Expense"},
			{"title": "Income", "key": "[child] Income", "realName": "Income"},
			{"title": "Money", "key": "[child] Money", "realName": "Money"},
			{"title": "Item", "key": "[child] Item", "realName": "Item"},
			{"title": "Confirmation", "key": "[child] Confirmation", "realName": "Confirmation"},
			{"title": "IndividualBeneficiary", "key": "[child] IndividualBeneficiary", "realName": "IndividualBeneficiary"},
			{"title": "InstitutionalBeneficiary", "key": "[child] InstitutionalBeneficiary", "realName": "InstitutionalBeneficiary"},
			{"title": "Product", "key": "[child] Product", "realName": "Product"}
		]
	}
]
