[
	{"title": "Essential", "key": "Essential", "expand": true, "isFolder": true, "children": [
			{"title": "Donor", "key": "[child] Donor", "realName": "Donor"},
			{"title": "Periodic", "key": "[child] Periodic", "realName": "Periodic"},
			{"title": "Continous", "key": "[child] Continous", "realName": "Continous"},
			{"title": "Eventual", "key": "[child] Eventual", "realName": "Eventual"},
			{"title": "StoryBoard", "key": "[child] StoryBoard", "realName": "StoryBoard"},
			{"title": "IndividualBeneficiary", "key": "[child] IndividualBeneficiary", "realName": "IndividualBeneficiary"},
			{"title": "InstitutionalBeneficiary", "key": "[child] InstitutionalBeneficiary", "realName": "InstitutionalBeneficiary"},
			{"title": "Product", "key": "[child] Product", "realName": "Product"}
		]
	},
	{"title": "Additional", "key": "Additional", "expand": true, "isFolder": true, "children": [
			{"title": "Money", "key": "[child] Money", "realName": "Money"},
			{"title": "Item", "key": "[child] Item", "realName": "Item"},
			{"title": "Confirmation", "key": "[child] Confirmation", "realName": "Confirmation"},
			{"title": "MemberNotification", "key": "[child] MemberNotification", "realName": "MemberNotification"},
			{"title": "Summary", "key": "[child] Summary", "realName": "Summary"},
			{"title": "Expense", "key": "[child] Expense", "realName": "Expense"},
			{"title": "Income", "key": "[child] Income", "realName": "Income"}
		]
	},
	{"title": "Extra", "key": "Extra", "expand": true, "isFolder": true, "children": [
			{"title": "AutomaticReport", "key": "[child] AutomaticReport", "realName": "AutomaticReport"}
		]
	},
	{"title": "All_Features", "key": "All_Features", "expand": true, "isFolder": true, "addClass": "hidden", "children": [
			{"title": "Periodic", "key": "[child] Periodic", "realName": "Periodic", "addClass": "hidden"},
			{"title": "Continous", "key": "[child] Continous", "realName": "Continous", "addClass": "hidden"},
			{"title": "Eventual", "key": "[child] Eventual", "realName": "Eventual", "addClass": "hidden"},
			{"title": "MemberNotification (require: Donor)", "key": "[child] MemberNotification (require: Donor)", "realName": "MemberNotification", "require": "Donor", "addClass": "hidden"},
			{"title": "AutomaticReport (require: Summary)", "key": "[child] AutomaticReport (require: Summary)", "realName": "AutomaticReport", "require": "Summary", "addClass": "hidden"},
			{"title": "StoryBoard", "key": "[child] StoryBoard", "realName": "StoryBoard", "addClass": "hidden"},
			{"title": "Summary (exclude: Income) (exclude: Expense)", "key": "[child] Summary (exclude: Income) (exclude: Expense)", "realName": "Summary", "exclude": "Income,Expense", "addClass": "hidden"},
			{"title": "Donor", "key": "[child] Donor", "realName": "Donor", "addClass": "hidden"},
			{"title": "Expense", "key": "[child] Expense", "realName": "Expense", "addClass": "hidden"},
			{"title": "Income", "key": "[child] Income", "realName": "Income", "addClass": "hidden"},
			{"title": "Money", "key": "[child] Money", "realName": "Money", "addClass": "hidden"},
			{"title": "Item", "key": "[child] Item", "realName": "Item", "addClass": "hidden"},
			{"title": "Confirmation", "key": "[child] Confirmation", "realName": "Confirmation", "addClass": "hidden"},
			{"title": "IndividualBeneficiary", "key": "[child] IndividualBeneficiary", "realName": "IndividualBeneficiary", "addClass": "hidden"},
			{"title": "InstitutionalBeneficiary", "key": "[child] InstitutionalBeneficiary", "realName": "InstitutionalBeneficiary", "addClass": "hidden"},
			{"title": "Product", "key": "[child] Product", "realName": "Product", "addClass": "hidden"}
		]
	}
]
