[
	{
		"productName": "ProductOne",
		"organizationName": "Fasilkom UI",
		"adminName": "Reza",
		"adminEmail": "reza@reza.com"
	},
	{
		"productName": "ProductTwo",
		"organizationName": "Kabinet NKRI",
		"adminName": "Jokowi",
		"adminEmail": "jokowi@indonesia.id"
	}
]