[
    {"title": "Program", "isFolder": true, "key": "Program", "expand": true,
        "children": [
            {"title": "Periodic", "key": "[anak] Periodic"},
            {"title": "Continous", "key": "[anak] Continous"},
            {"title": "Eventual", "key": "[anak] Eventual"}
        ]
    },
    {"title": "Publication", "key": "Publication", "isFolder": true, "expand": true,
        "children": [
            {"title": "Notification", "key": "[anak] Notification"},
            {"title": "Blog", "key": "[anak] Blog"},
            {"title": "Automatic Report", "key": "[anak] Automatic_Report"}
        ]
    },
    {"title": "Finance Inventory", "key": "Finance_Inventory", "isFolder": true, "expand": true,
        "children": [
            {"title": "Donor", "key": "Donor", "isFolder": true,
                "children": [
                    {"title": "Individual Donor", "key": "[anak] Individual_Donor"},
                    {"title": "Instutional Donor", "key": "[anak] Instutional_Donor"}
                ]
            },
            {"title": "Summary", "key": "[anak] Summary"},
            {"title": "Expense", "key": "[anak] Expense"},
            {"title": "Income", "key": "[anak] Income"}
        ]
    },
    {"title": "Donation", "key": "Donation", "isFolder": true, "expand": true,
        "children": [
            {"title": "Money", "key": "[anak] Money"},
            {"title": "Item", "key": "[anak] Item"},
            {"title": "Confirmation", "key": "[anak] Confirmation"}
        ]
    },
    {"title": "Objective Target", "key": "Objective_Target", "isFolder": true, "expand": true,
        "children": [
            {"title": "Beneficiary", "key": "Beneficiary", "isFolder": true,
                "children": [
                    {"title": "Individual Beneficiary", "key": "[anak] Individual_Beneficiary"},
                    {"title": "Instutional Beneficiary", "key": "[anak] Instutional_Beneficiary"},
                    {"title": "District", "key": "[anak] District"}
                ]
            },
            {"title": "Product", "key": "[anak] Product"}
        ]
    }
]