[
	{"title": "Medium_Company", "key": "Medium_Company", "expand": true, "isFolder": true, "children": [
			{"title": "Periodic", "key": "[child] Periodic"},
			{"title": "MemberNotification", "key": "[child] MemberNotification", "require": "Donor,Confirmation", "select": true},
			{"title": "Summary", "key": "[child] Summary", "exclude": "Continous"},
			{"title": "Donor", "key": "[child] Donor"},
			{"title": "Money", "key": "[child] Money"},
			{"title": "Item", "key": "[child] Item"},
			{"title": "Product", "key": "[child] Product", "exclude": "Periodic,Continous"},
			{"title": "Continous", "key": "[child] Continous"},
			{"title": "AutomaticReport", "key": "[child] AutomaticReport", "require": "Summary", "select": true},
			{"title": "Confirmation", "key": "[child] Confirmation"}
		]
	},
	{"title": "Small_Company", "key": "Small_Company", "expand": true, "isFolder": true, "children": [
			{"title": "Periodic", "key": "[child] Periodic"},
			{"title": "MemberNotification", "key": "[child] MemberNotification", "require": "Donor"},
			{"title": "Summary", "key": "[child] Summary"},
			{"title": "Donor", "key": "[child] Donor"},
			{"title": "Money", "key": "[child] Money"},
			{"title": "Item", "key": "[child] Item"},
			{"title": "Product", "key": "[child] Product", "exclude": "Periodic"}
		]
	},
	{"title": "Large_Company", "key": "Large_Company", "expand": true, "isFolder": true, "children": [
			{"title": "Periodic", "key": "[child] Periodic"},
			{"title": "MemberNotification", "key": "[child] MemberNotification", "require": "Donor"},
			{"title": "Summary", "key": "[child] Summary"},
			{"title": "Donor", "key": "[child] Donor"},
			{"title": "Money", "key": "[child] Money"},
			{"title": "Item", "key": "[child] Item"},
			{"title": "Product", "key": "[child] Product"},
			{"title": "Continous", "key": "[child] Continous"},
			{"title": "AutomaticReport", "key": "[child] AutomaticReport", "require": "Summary"},
			{"title": "Confirmation", "key": "[child] Confirmation"},
			{"title": "IndividualBeneficiary", "key": "[child] IndividualBeneficiary"},
			{"title": "Product", "key": "[child] Product", "exclude": "Periodic"}
		]
	}
]


[
	{"title": "AllFeatures", "key": "AllFeatures", "expand": true, "isFolder": true, "children": [
			{"title": "Periodic", "key": "[child] Periodic", "realName": "Periodic", "select": true},
			{"title": "Continous", "key": "[child] Continous", "realName": "Continous", "select": true},
			{"title": "Eventual", "key": "[child] Eventual", "realName": "Eventual", "select": true},
			{"title": "MemberNotification (require: Donor, Product)", "key": "[child] MemberNotification", "realName": "MemberNotification", "require": "Donor,Product", "select": true},
			{"title": "AutomaticReport (require: Summary)", "key": "[child] AutomaticReport", "realName": "AutomaticReport", "require": "Summary", "select": true},
			{"title": "StoryBoard", "key": "[child] StoryBoard", "realName": "StoryBoard", "select": true},
			{"title": "Summary (exclude: Income) (exclude: Expense)", "key": "[child] Summary", "realName": "Summary", "exclude": "Income,Expense", "select": true},
			{"title": "Donor", "key": "[child] Donor", "realName": "Donor", "select": true},
			{"title": "Expense", "key": "[child] Expense", "realName": "Expense", "select": true},
			{"title": "Income", "key": "[child] Income", "realName": "Income", "select": true},
			{"title": "Money", "key": "[child] Money", "realName": "Money", "select": true},
			{"title": "Item", "key": "[child] Item", "realName": "Item", "select": true},
			{"title": "Confirmation", "key": "[child] Confirmation", "realName": "Confirmation", "select": true},
			{"title": "IndividualBeneficiary", "key": "[child] IndividualBeneficiary", "realName": "IndividualBeneficiary", "select": true},
			{"title": "InstitutionalBeneficiary", "key": "[child] InstitutionalBeneficiary", "realName": "InstitutionalBeneficiary", "select": true},
			{"title": "Product", "key": "[child] Product", "realName": "Product", "select": true}
		]
	},
	{"title": "Tes", "key": "Tes", "expand": true, "isFolder": true, "children": [
			{"title": "Periodic", "key": "[child] Periodic", "realName": "Periodic"},
			{"title": "Continous", "key": "[child] Continous", "realName": "Continous"},
			{"title": "Eventual", "key": "[child] Eventual", "realName": "Eventual"}
		]
	}
]


[
	{"title": "Small_Company", "key": "Small_Company", "expand": true, "isFolder": true, "children": [
			{"title": "Periodic (require: AutomaticReport, Product)", "key": "[child] Periodic", "realName": "Periodic", "select": true, "require": "AutomaticReport,Product"},
			{"title": "MemberNotification", "key": "[child] MemberNotification", "realName": "MemberNotification", "select": true},
			{"title": "Summary", "key": "[child] Summary", "realName": "Summary", "select": true},
			{"title": "Donor (exclude: Eventual, StoryBoard)", "key": "[child] Donor", "realName": "Donor", "select": true, "exclude": "Eventual,StoryBoard"},
			{"title": "Money", "key": "[child] Money", "realName": "Money", "select": true},
			{"title": "Item", "key": "[child] Item", "realName": "Item", "select": true},
			{"title": "Product", "key": "[child] Product", "realName": "Product", "select": true}
		]
	},
	{"title": "Leaf", "key": "Leaf", "expand": true, "isFolder": true, "children": [
			{"title": "Periodic", "key": "[child] Periodic", "realName": "Periodic"},
			{"title": "Continous", "key": "[child] Continous", "realName": "Continous"},
			{"title": "Eventual", "key": "[child] Eventual", "realName": "Eventual"},
			{"title": "MemberNotification", "key": "[child] MemberNotification", "realName": "MemberNotification"},
			{"title": "AutomaticReport", "key": "[child] AutomaticReport", "realName": "AutomaticReport"},
			{"title": "StoryBoard", "key": "[child] StoryBoard", "realName": "StoryBoard"},
			{"title": "Summary", "key": "[child] Summary", "realName": "Summary"},
			{"title": "Donor", "key": "[child] Donor", "realName": "Donor"},
			{"title": "Expense", "key": "[child] Expense", "realName": "Expense"},
			{"title": "Income", "key": "[child] Income", "realName": "Income"},
			{"title": "Money", "key": "[child] Money", "realName": "Money"},
			{"title": "Item", "key": "[child] Item", "realName": "Item"},
			{"title": "Confirmation", "key": "[child] Confirmation", "realName": "Confirmation"},
			{"title": "IndividualBeneficiary", "key": "[child] IndividualBeneficiary", "realName": "IndividualBeneficiary"},
			{"title": "InstitutionalBeneficiary", "key": "[child] InstitutionalBeneficiary", "realName": "InstitutionalBeneficiary"},
			{"title": "Product", "key": "[child] Product", "realName": "Product"}
		]
	}
]
